…
``` r
model_main_effects = lm(bwt ~ blength + gaweeks, data = birthweight) 

model_interaction = lm(bwt ~ bhead + blength + babysex 
                       + bhead*blength + bhead*babysex + blength*babysex
                       + bhead*blength*babysex, data = birthweight) 

bwt_cv = 
  crossv_mc(birthweight, 100) 

bwt_cv %>% pull(train) %>% .[[1]] %>% as_tibble
```

    ## # A tibble: 3,473 x 20
    ##    babysex bhead blength   bwt  delwt fincome frace gaweeks malform
    ##    <fct>   <dbl>   <dbl> <dbl>  <dbl>   <dbl> <fct>   <dbl> <fct>  
    ##  1 Female     34      51  3629 80286.      35 White    39.9 Absent 
    ##  2 Male       34      48  3062 70760.      65 Black    25.9 Absent 
    ##  3 Female     34      52  3374 70760.       5 White    41.6 Absent 
    ##  4 Male       33      52  3374 58513.      55 White    40.7 Absent 
    ##  5 Female     33      49  2778 63503.       5 White    37.4 Absent 
    ##  6 Male       36      52  3515 66224.      85 White    40.3 Absent 
    ##  7 Male       33      50  3459 76657.      75 Black    40.7 Absent 
    ##  8 Male       35      51  3459 66224.      55 White    39.4 Absent 
    ##  9 Male       35      51  3544 58513.      65 White    39.6 Absent 
    ## 10 Female     33      49  2551 54431.      75 Black    38.1 Absent 
    ## # … with 3,463 more rows, and 11 more variables: menarche <dbl>,
    ## #   mheight <dbl>, momage <dbl>, mrace <fct>, parity <dbl>, pnumlbw <dbl>,
    ## #   pnumsga <dbl>, ppbmi <dbl>, ppwt <dbl>, smoken <dbl>, wtgain <dbl>

``` r
bwt_cv %>% pull(test) %>% .[[1]] %>% as_tibble
```

    ## # A tibble: 869 x 20
    ##    babysex bhead blength   bwt  delwt fincome frace gaweeks malform
    ##    <fct>   <dbl>   <dbl> <dbl>  <dbl>   <dbl> <fct>   <dbl> <fct>  
    ##  1 Female     36      50  3345 67132.      85 White    39.9 Absent 
    ##  2 Male       34      52  3062 71214.      55 White    40   Absent 
    ##  3 Female     33      46  2523 57153.      96 Black    40.3 Absent 
    ##  4 Female     35      51  3317 58967.      55 White    43.4 Absent 
    ##  5 Female     35      48  3175 71668.      75 White    39.7 Absent 
    ##  6 Male       36      53  3629 66678.      75 White    41.3 Absent 
    ##  7 Female     35      51  3827 58967.      45 White    41.3 Absent 
    ##  8 Male       35      52  3232 54885.      75 Asian    42.3 Absent 
    ##  9 Female     36      51  3317 61689.      65 White    42.6 Absent 
    ## 10 Male       34      52  3118 58967.      75 White    41   Absent 
    ## # … with 859 more rows, and 11 more variables: menarche <dbl>,
    ## #   mheight <dbl>, momage <dbl>, mrace <fct>, parity <dbl>, pnumlbw <dbl>,
    ## #   pnumsga <dbl>, ppbmi <dbl>, ppwt <dbl>, smoken <dbl>, wtgain <dbl>
…
